src/hdl/cdc/sim/icarus/cdc.vcd
$date
	Mon Sep 02 14:02:23 2024
$end
$version
	Icarus Verilog
$end
$timescale
	1ps
$end
$scope module cdc_tb $end
$var reg 9 ! sim_data_in [8:0] $end
$var reg 1 " sim_rd $end
$var reg 1 # sim_rd_arst_n $end
$var reg 1 $ sim_rd_clk $end
$var reg 1 % sim_wr $end
$var reg 1 & sim_wr_arst_n $end
$var reg 1 ' sim_wr_clk $end
$var integer 32 ( read_count [31:0] $end
$var integer 32 ) write_count [31:0] $end
$scope module dut_elastic_buffer $end
$var wire 9 * i_data [8:0] $end
$var wire 1 # i_rd_arst_n $end
$var wire 1 $ i_rd_clk $end
$var wire 1 & i_wr_arst_n $end
$var wire 1 ' i_wr_clk $end
$var wire 9 + o_data [8:0] $end
$var wire 9 , ri_data_i [8:0] $end
$var wire 9 - ri_data_o [8:0] $end
$var wire 1 . ri_rd_enable $end
$var wire 1 / ri_wr_enable $end
$var wire 1 0 local_wr_arst_n $end
$var wire 1 1 local_rd_arst_n $end
$var parameter 32 2 ADDR_WIDTH $end
$var parameter 32 3 DATA_WIDTH $end
$var parameter 9 4 SKP_SYMBOL $end
$var reg 9 5 r_data_i [8:0] $end
$var reg 9 6 r_data_o [8:0] $end
$var reg 1 7 r_rd_enable $end
$var reg 1 8 r_wr_enable $end
$scope module inst_async_fifo $end
$var wire 9 9 i_data [8:0] $end
$var wire 1 7 i_rd $end
$var wire 1 $ i_rd_clk $end
$var wire 1 8 i_wr $end
$var wire 1 ' i_wr_clk $end
$var wire 9 : o_data [8:0] $end
$var wire 1 ; o_empty $end
$var wire 1 < o_full $end
$var wire 5 = ri_rd_ptr_gray [4:0] $end
$var wire 5 > ri_rd_ptr_gray_meta [4:0] $end
$var wire 5 ? ri_rd_ptr_gray_sync [4:0] $end
$var wire 5 @ ri_wr_ptr_gray [4:0] $end
$var wire 5 A ri_wr_ptr_gray_meta [4:0] $end
$var wire 5 B ri_wr_ptr_gray_sync [4:0] $end
$var wire 5 C wr_ptr_bin_sync [4:0] $end
$var wire 5 D ri_wr_ptr_diff [4:0] $end
$var wire 5 E ri_wr_ptr_bin [4:0] $end
$var wire 5 F ri_rd_ptr_diff [4:0] $end
$var wire 5 G ri_rd_ptr_bin [4:0] $end
$var wire 1 H ri_full $end
$var wire 1 I ri_empty $end
$var wire 1 J ri_almost_full $end
$var wire 1 K ri_almost_empty $end
$var wire 5 L rd_ptr_bin_sync [4:0] $end
$var wire 1 M o_almost_full $end
$var wire 1 N o_almost_empty $end
$var wire 1 O local_wr_arst_n $end
$var wire 1 P local_rd_arst_n $end
$var wire 1 0 i_wr_arst_n $end
$var wire 1 1 i_rd_arst_n $end
$var parameter 32 Q ADDR_WIDTH $end
$var parameter 32 R DATA_WIDTH $end
$var parameter 35 S THRESHOLD $end
$var reg 1 N r_almost_empty $end
$var reg 1 M r_almost_full $end
$var reg 1 T r_empty $end
$var reg 1 U r_full $end
$var reg 5 V r_rd_ptr_bin [4:0] $end
$var reg 5 W r_rd_ptr_diff [4:0] $end
$var reg 5 X r_rd_ptr_gray [4:0] $end
$var reg 5 Y r_rd_ptr_gray_meta [4:0] $end
$var reg 5 Z r_rd_ptr_gray_sync [4:0] $end
$var reg 5 [ r_wr_ptr_bin [4:0] $end
$var reg 5 \ r_wr_ptr_diff [4:0] $end
$var reg 5 ] r_wr_ptr_gray [4:0] $end
$var reg 5 ^ r_wr_ptr_gray_meta [4:0] $end
$var reg 5 _ r_wr_ptr_gray_sync [4:0] $end
$var integer 32 ` i [31:0] $end
$scope begin genblk1[0] $end
$var parameter 2 a j $end
$upscope $end
$scope begin genblk1[1] $end
$var parameter 2 b j $end
$upscope $end
$scope begin genblk1[2] $end
$var parameter 3 c j $end
$upscope $end
$scope begin genblk1[3] $end
$var parameter 3 d j $end
$upscope $end
$scope begin genblk1[4] $end
$var parameter 4 e j $end
$upscope $end
$scope module inst_reset_rd $end
$var wire 1 $ i_clk $end
$var wire 1 f local_reset_n $end
$var wire 6 g ri_rst [5:0] $end
$var wire 1 P o_rst $end
$var wire 1 1 i_rst_n $end
$var parameter 1 h INIT $end
$var parameter 1 i POLARITY $end
$var parameter 32 j STAGES $end
$var parameter 32 k VSTAGES $end
$var reg 6 l r_rst [5:0] $end
$upscope $end
$scope module inst_reset_wr $end
$var wire 1 ' i_clk $end
$var wire 1 m local_reset_n $end
$var wire 6 n ri_rst [5:0] $end
$var wire 1 O o_rst $end
$var wire 1 0 i_rst_n $end
$var parameter 1 o INIT $end
$var parameter 1 p POLARITY $end
$var parameter 32 q STAGES $end
$var parameter 32 r VSTAGES $end
$var reg 6 s r_rst [5:0] $end
$upscope $end
$upscope $end
$scope module inst_reset_rd $end
$var wire 1 $ i_clk $end
$var wire 1 # i_rst_n $end
$var wire 1 t local_reset_n $end
$var wire 6 u ri_rst [5:0] $end
$var wire 1 1 o_rst $end
$var parameter 1 v INIT $end
$var parameter 1 w POLARITY $end
$var parameter 32 x STAGES $end
$var parameter 32 y VSTAGES $end
$var reg 6 z r_rst [5:0] $end
$upscope $end
$scope module inst_reset_wr $end
$var wire 1 ' i_clk $end
$var wire 1 & i_rst_n $end
$var wire 1 { local_reset_n $end
$var wire 6 | ri_rst [5:0] $end
$var wire 1 0 o_rst $end
$var parameter 1 } INIT $end
$var parameter 1 ~ POLARITY $end
$var parameter 32 !" STAGES $end
$var parameter 32 "" VSTAGES $end
$var reg 6 #" r_rst [5:0] $end
$upscope $end
$upscope $end
$scope begin read_process $end
$upscope $end
$scope begin write_process $end
$upscope $end
$upscope $end
$enddefinitions $end
$comment Show the parameter values. $end
$dumpall
b110 ""
b110 !"
1~
0}
b110 y
b110 x
1w
0v
b110 r
b110 q
0p
0o
b110 k
b110 j
0i
0h
b100 e
b11 d
b10 c
b1 b
b0 a
b1000 S
b1001 R
b100 Q
b101111100 4
b1001 3
b100 2
$end
#0
$dumpvars
b111111 #"
b111110 |
0{
b111111 z
b111110 u
0t
b0 s
b1 n
1m
b0 l
b1 g
1f
b10000 `
b0 _
b0 ^
b0 ]
b0 \
b0 [
b0 Z
b0 Y
b0 X
b0 W
b0 V
0U
1T
0P
0O
1N
0M
b0 L
1K
0J
1I
0H
b0 G
b0 F
b0 E
b0 D
b0 C
b0 B
b0 A
b0 @
b0 ?
b0 >
b0 =
0<
1;
b0 :
b101111100 9
08
07
b101111100 6
b101111100 5
11
10
1/
1.
b0 -
b101111100 ,
b101111100 +
b101111100 *
bx )
b0 (
1'
1&
0%
1$
1#
0"
b101111100 !
$end
#4100000
0'
#4167000
0$
#8200000
b1 D
b1 @
b11 n
b1 E
b1 s
18
1'
#8334000
b11 g
b1 l
17
b0 +
b0 6
b1 (
1$
#12300000
0'
#12501000
0$
#16400000
0.
b111 n
b11 s
b101111100 -
b101111100 :
1'
#16668000
b111 g
b11 l
07
b101111100 +
b101111100 6
b10 (
1$
#20500000
0'
#20835000
0$
#24600000
b1111 n
b111 s
1'
#25002000
b1111 g
b111 l
b11 (
1$
#28700000
0'
#29169000
0$
#32800000
b11111 n
b1111 s
1'
#33336000
b11111 g
b1111 l
b100 (
1$
#36900000
0'
#37503000
0$
#41000000
b111111 n
b11111 s
1'
#41670000
b111111 g
b11111 l
b101 (
1$
#45100000
0'
#45837000
0$
#49200000
1O
b111111 s
1'
#50004000
1P
b111111 l
b110 (
1$
#53300000
0'
#54171000
0$
#57400000
b10 D
b11 @
b1 \
b1 A
b1 ]
b10 E
b1 [
1'
#58338000
b1 B
b1 ^
b111 (
1$
#61500000
0'
#62505000
0$
#65600000
b11 D
b10 @
b10 \
b11 A
b11 ]
b11 E
b10 [
1'
#66672000
b1 F
0I
b1 C
b1 _
b11 B
b11 ^
b1000 (
1$
#69700000
0'
#70839000
0$
#73800000
b100 D
b110 @
b11 \
b10 A
b10 ]
b100 E
b11 [
1'
#75006000
b10 F
0;
0T
b1 W
b10 C
b11 _
b10 B
b10 ^
b1001 (
1$
#77900000
0'
#79173000
0$
#82000000
b101 D
b111 @
b100 \
b110 A
b110 ]
b101 E
b100 [
1'
#83340000
b11 F
b10 W
b11 C
b10 _
b110 B
b110 ^
b1010 (
1$
#86100000
0'
#87507000
0$
#90200000
b110 D
b101 @
b101 \
b111 A
b111 ]
b110 E
b101 [
1'
#91674000
b100 F
b11 W
b100 C
b110 _
b111 B
b111 ^
b1011 (
1$
#94300000
0'
#95841000
0$
#98400000
b111 D
b100 @
b110 \
b101 A
b101 ]
b111 E
b110 [
1'
#100000000
1t
1{
0#
0&
#100008000
b111100 u
b101 F
b111110 z
b100 W
b101 C
b111 _
b101 B
b101 ^
b1100 (
1$
#102500000
0'
#104175000
0$
#106600000
b111100 |
b1000 D
b1100 @
b111110 #"
b111 \
b100 A
b100 ]
b1000 E
b111 [
1'
#108342000
b111000 u
b110 F
b111100 z
0K
b101 W
b110 C
b101 _
b100 B
b100 ^
b1101 (
1$
#110700000
0'
#112509000
0$
#114800000
b111000 |
b1001 D
b1101 @
b111100 #"
b1000 \
b1100 A
b1100 ]
b1001 E
b1000 [
1'
#116676000
1.
b110000 u
b111 F
b111000 z
0N
b110 W
b111 C
b100 _
b1100 B
b1100 ^
b1110 (
1$
#118900000
0'
#120843000
0$
#123000000
b110000 |
b1010 D
b1111 @
b111000 #"
b1001 \
b1101 A
b1101 ]
b1010 E
b1001 [
1'
#125010000
b1 =
b1 G
b100000 u
b111 F
b110000 z
b111 W
b1000 C
b1100 _
b1101 B
b1101 ^
17
b1111 (
1$
#127100000
0'
#129177000
0$
#131200000
b100000 |
b1011 D
b1110 @
b110000 #"
b1010 \
b1111 A
b1111 ]
b1011 E
b1010 [
1'
#133344000
b11 =
b0 u
b10 G
b111 F
b100000 z
b1 >
b1 X
b1 V
b1001 C
b1101 _
b1111 B
b1111 ^
b10000 (
1$
#135300000
0'
#137511000
0$
#139400000
b0 |
b1100 D
b1010 @
b100000 #"
b1011 \
b1110 A
b1110 ]
b1100 E
b1011 [
b1 ?
b1 Y
1'
#141678000
1I
0.
1N
1;
1T
1K
b0 W
b1 g
0P
b0 l
07
0f
b0 =
01
b0 G
b0 F
b0 z
b0 >
b0 X
b0 V
b0 C
b0 _
b0 B
b0 ^
b10001 (
1$
#143500000
0'
#145845000
0$
#147600000
b0 D
b1 n
0O
b0 s
08
0m
00
b0 @
b0 #"
0J
b0 \
b0 A
b0 ]
b0 E
b0 [
b0 L
b0 Z
b0 ?
b0 Y
1'
#150012000
b10010 (
1$
#151700000
0'
#154179000
0$
#155800000
1'
#158346000
b10011 (
1$
#159900000
0'
#162513000
0$
#164000000
1'
#166680000
b10100 (
1$
#168100000
0'
#170847000
0$
#172200000
1'
#175014000
b10101 (
1$
#176300000
0'
#179181000
0$
#180400000
1'
#183348000
b10110 (
1$
#184500000
0'
#187515000
0$
#188600000
1'
#191682000
b10111 (
1$
#192700000
0'
#195849000
0$
#196800000
1'
#200000000
1f
1m
b111110 u
11
b111110 |
10
b111111 z
b111111 #"
0t
0{
1#
1&
#200016000
b11 g
b1 l
b11000 (
1$
#200900000
0'
#204183000
0$
#205000000
b1 D
b1 @
b11 n
b1 E
b1 s
18
1'
#208350000
b111 g
b11 l
b11001 (
1$
#209100000
0'
#212517000
0$
#213200000
b111 n
b11 s
1'
#216684000
b1111 g
b111 l
b11010 (
1$
#217300000
0'
#220851000
0$
#221400000
b1111 n
b111 s
1'
#225018000
b11111 g
b1111 l
b11011 (
1$
#225500000
0'
#229185000
0$
#229600000
b11111 n
b1111 s
1'
#233352000
b111111 g
b11111 l
b11100 (
1$
#233700000
0'
#237519000
0$
#237800000
b111111 n
b11111 s
1'
#241686000
1P
b111111 l
b11101 (
1$
#241900000
0'
#245853000
0$
#246000000
1O
b111111 s
1'
#250020000
b11110 (
1$
#250100000
0'
#254187000
0$
#254200000
b10 D
b11 @
b1 \
b1 A
b1 ]
b10 E
b1 [
1'
#258300000
0'
#258354000
b1 B
b1 ^
b11111 (
1$
#262400000
b11 D
b10 @
b10 \
b11 A
b11 ]
b11 E
b10 [
1'
#262521000
0$
#266500000
0'
#266688000
b1 F
0I
b1 C
b1 _
b11 B
b11 ^
b100000 (
1$
#270600000
b100 D
b110 @
b11 \
b10 A
b10 ]
b100 E
b11 [
1'
#270855000
0$
#274700000
0'
#275022000
b10 F
0;
0T
b1 W
b10 C
b11 _
b10 B
b10 ^
b100001 (
1$
#278800000
b101 D
b111 @
b100 \
b110 A
b110 ]
b101 E
b100 [
1'
#279189000
0$
#282900000
0'
#283356000
b11 F
b10 W
b11 C
b10 _
b110 B
b110 ^
b100010 (
1$
#287000000
b110 D
b101 @
b101 \
b111 A
b111 ]
b110 E
b101 [
1'
#287523000
0$
#291100000
0'
#291690000
b100 F
b11 W
b100 C
b110 _
b111 B
b111 ^
b100011 (
1$
#295200000
b111 D
b100 @
b110 \
b101 A
b101 ]
b111 E
b110 [
1'
#295857000
0$
#299300000
0'
#300024000
b101 F
b100 W
b101 C
b111 _
b101 B
b101 ^
b100100 (
1$
#303400000
b1000 D
b1100 @
b111 \
b100 A
b100 ]
b1000 E
b111 [
1'
#304191000
0$
#307500000
0'
#308358000
b110 F
0K
b101 W
b110 C
b101 _
b100 B
b100 ^
b100101 (
1$
#311600000
b1001 D
b1101 @
b1000 \
b1100 A
b1100 ]
b1001 E
b1000 [
1'
#312525000
0$
#315700000
0'
#316692000
1.
b111 F
0N
b110 W
b111 C
b100 _
b1100 B
b1100 ^
b100110 (
1$
#319800000
b1010 D
b1111 @
b1001 \
b1101 A
b1101 ]
b1010 E
b1001 [
1'
#320859000
0$
#323900000
0'
#325026000
b1 =
b1 G
b111 F
b111 W
b1000 C
b1100 _
b1101 B
b1101 ^
17
b100111 (
1$
#328000000
b1011 D
b1110 @
b1010 \
b1111 A
b1111 ]
b1011 E
b1010 [
1'
#329193000
0$
#332100000
0'
#333360000
b11 =
b10 G
b111 F
b1 >
b1 X
b1 V
b1001 C
b1101 _
b1111 B
b1111 ^
b101000 (
1$
#336200000
b1100 D
b1010 @
b1011 \
b1110 A
b1110 ]
b1100 E
b1011 [
b1 ?
b1 Y
1'
#337527000
0$
#340300000
0'
#341694000
b10 =
b11 G
b111 F
b11 >
b11 X
b10 V
b1010 C
b1111 _
b1110 B
b1110 ^
1$
#344400000
b1011 @
1J
b1100 \
b1010 A
b1010 ]
b1101 E
b1100 [
b1 L
b1 Z
b11 ?
b11 Y
1'
#345861000
0$
#348500000
0'
#350028000
b110 =
b100 G
b111 F
b10 >
b10 X
b11 V
b1011 C
b1110 _
b1010 B
b1010 ^
1$
#352600000
0/
b1001 @
b1100 D
1M
b1011 A
b1011 ]
b1110 E
b1101 [
b10 L
b11 Z
b10 ?
b10 Y
1'
#354195000
0$
#356700000
0'
#358362000
b111 =
b101 G
b111 F
b110 >
b110 X
b100 V
b1100 C
b1010 _
b1011 B
b1011 ^
1$
#360800000
b1011 D
b1001 A
b1001 ]
b1110 E
b1110 [
b11 L
b10 Z
b110 ?
b110 Y
08
1'
#362529000
0$
#364900000
0'
#366696000
b101 =
b110 G
b111 F
b111 >
b111 X
b101 V
b1101 C
b1011 _
b1001 B
b1001 ^
1$
#369000000
b1010 D
0J
b1011 \
b100 L
b110 Z
b111 ?
b111 Y
1'
#370863000
0$
#373100000
0'
#375030000
b100 =
b111 G
b111 F
b101 >
b101 X
b110 V
b1110 C
b1001 _
1$
#377200000
1/
b1001 D
0M
b1010 \
b101 L
b111 Z
b101 ?
b101 Y
1'
#379197000
0$
#381300000
0'
#383364000
b110 F
b1100 =
b1000 G
b100 >
b100 X
b111 V
1$
#385400000
b1000 @
b1001 D
b1111 E
b1001 \
b110 L
b101 Z
b100 ?
b100 Y
18
1'
#387531000
0$
#389500000
0'
#391698000
b101 F
b1101 =
b1001 G
b110 W
b1100 >
b1100 X
b1000 V
1$
#393600000
b11000 @
b1000 A
b1000 ]
b10000 E
b1111 [
b111 L
b100 Z
b1100 ?
b1100 Y
1'
#395865000
0$
#397700000
0'
#400032000
b100 F
b1111 =
b1010 G
b101 W
b1101 >
b1101 X
b1001 V
b1000 B
b1000 ^
1$
#401800000
b11001 @
b1001 D
b11000 A
b11000 ]
b10001 E
b10000 [
b1000 L
b1100 Z
b1101 ?
b1101 Y
1'
#404199000
0$
#405900000
0'
#408366000
b1110 =
b1011 G
b100 F
1K
b100 W
b1111 >
b1111 X
b1010 V
b1111 C
b1000 _
b11000 B
b11000 ^
1$
#410000000
b11011 @
b11001 A
b11001 ]
b10010 E
b10001 [
b1001 L
b1101 Z
b1111 ?
b1111 Y
1'
#412533000
0$
#414100000
0'
#416700000
0.
b1010 =
b1100 G
b100 F
1N
b1110 >
b1110 X
b1011 V
b10000 C
b11000 _
b11001 B
b11001 ^
1$
#418200000
b11010 @
b1001 D
b11011 A
b11011 ]
b10011 E
b10010 [
b1010 L
b1111 Z
b1110 ?
b1110 Y
1'
#420867000
0$
#422300000
0'
#425034000
b101 F
b1010 >
b1010 X
b1100 V
b10001 C
b11001 _
b11011 B
b11011 ^
07
1$
#426400000
b11110 @
b11010 A
b11010 ]
b10100 E
b10011 [
b1011 L
b1110 Z
b1010 ?
b1010 Y
1'
#429201000
0$
#430500000
0'
#433368000
b110 F
0K
b101 W
b10010 C
b11011 _
b11010 B
b11010 ^
1$
#434600000
b11111 @
b1001 D
b11110 A
b11110 ]
b10101 E
b10100 [
b1100 L
b1010 Z
1'
#437535000
0$
#438700000
0'
#441702000
1.
b111 F
0N
b110 W
b10011 C
b11010 _
b11110 B
b11110 ^
1$
#442800000
b1010 D
b11101 @
b11111 A
b11111 ]
b10110 E
b10101 [
1'
#445869000
0$
#446900000
0'
#450036000
b1011 =
b1101 G
b111 F
b111 W
b10100 C
b11110 _
b11111 B
b11111 ^
17
1$
#451000000
b1011 D
b11100 @
b1010 \
b11101 A
b11101 ]
b10111 E
b10110 [
1'
#454203000
0$
#455100000
0'
#458370000
b1001 =
b1110 G
b111 F
b1011 >
b1011 X
b1101 V
b10101 C
b11111 _
b11101 B
b11101 ^
1$
#459200000
b1100 D
b10100 @
b1011 \
b11100 A
b11100 ]
b11000 E
b10111 [
b1011 ?
b1011 Y
1'
#462537000
0$
#463300000
0'
#466704000
b1000 =
b1111 G
b111 F
b1001 >
b1001 X
b1110 V
b10110 C
b11101 _
b11100 B
b11100 ^
1$
#467400000
b10101 @
1J
b1100 \
b10100 A
b10100 ]
b11001 E
b11000 [
b1101 L
b1011 Z
b1001 ?
b1001 Y
1'
#470871000
0$
#471500000
0'
#475038000
b11000 =
b10000 G
b111 F
b1000 >
b1000 X
b1111 V
b10111 C
b11100 _
b10100 B
b10100 ^
1$
#475600000
0/
b10111 @
b1100 D
1M
b10101 A
b10101 ]
b11010 E
b11001 [
b1110 L
b1001 Z
b1000 ?
b1000 Y
1'
#479205000
0$
#479700000
0'
#483372000
b11001 =
b10001 G
b111 F
b11000 >
b11000 X
b10000 V
b11000 C
b10100 _
b10101 B
b10101 ^
1$
#483800000
b1011 D
b10111 A
b10111 ]
b11010 E
b11010 [
b1111 L
b1000 Z
b11000 ?
b11000 Y
08
1'
#487539000
0$
#487900000
0'
#491706000
b11011 =
b10010 G
b111 F
b11001 >
b11001 X
b10001 V
b11001 C
b10101 _
b10111 B
b10111 ^
1$
#492000000
b1010 D
0J
b1011 \
b10000 L
b11000 Z
b11001 ?
b11001 Y
1'
#495873000
0$
#496100000
0'
#500040000
b11010 =
b10011 G
b111 F
b11011 >
b11011 X
b10010 V
b11010 C
b10111 _
1$
#500200000
1/
b1001 D
0M
b1010 \
b10001 L
b11001 Z
b11011 ?
b11011 Y
1'
#504207000
0$
#504300000
0'
#508374000
b110 F
b11110 =
b10100 G
b11010 >
b11010 X
b10011 V
1$
#508400000
b10110 @
b1001 D
b11011 E
b1001 \
b10010 L
b11011 Z
b11010 ?
b11010 Y
18
1'
#512500000
0'
#512541000
0$
#516600000
b10010 @
b10110 A
b10110 ]
b11100 E
b11011 [
b10011 L
b11010 Z
1'
#516708000
b101 F
b11111 =
b10101 G
b110 W
b11110 >
b11110 X
b10100 V
b10110 B
b10110 ^
1$
#520700000
0'
#520875000
0$
#524800000
b1010 D
b10011 @
b10010 A
b10010 ]
b11101 E
b11100 [
b11110 ?
b11110 Y
1'
#525042000
b11101 =
b10110 G
b101 F
b101 W
b11111 >
b11111 X
b10101 V
b11011 C
b10110 _
b10010 B
b10010 ^
1$
#528900000
0'
#529209000
0$
#533000000
b10001 @
b1010 D
b1010 \
b10011 A
b10011 ]
b11110 E
b11101 [
b10100 L
b11110 Z
b11111 ?
b11111 Y
1'
#533376000
b11100 =
b10111 G
b101 F
b11101 >
b11101 X
b10110 V
b11100 C
b10010 _
b10011 B
b10011 ^
1$
#537100000
0'
#537543000
0$
#541200000
b10000 @
b10001 A
b10001 ]
b11111 E
b11110 [
b10101 L
b11111 Z
b11101 ?
b11101 Y
1'
#541710000
0I
b10100 =
b11000 G
b101 F
b11100 >
b11100 X
b10111 V
b11101 C
b10011 _
b10001 B
b10001 ^
1$
#545300000
0'
#545877000
0$
#549400000
b0 @
b1010 D
b10000 A
b10000 ]
b0 E
b11111 [
b10110 L
b11101 Z
b11100 ?
b11100 Y
1'
#550044000
b10101 =
b11001 G
b101 F
b10100 >
b10100 X
b11000 V
b11110 C
b10001 _
b10000 B
b10000 ^
1$
#553500000
0'
#554211000
0$
#557600000
b1 @
b0 A
b0 ]
b1 E
b0 [
b10111 L
b11100 Z
b10100 ?
b10100 Y
1'
#558378000
b10111 =
b11010 G
b101 F
b10101 >
b10101 X
b11001 V
b11111 C
b10000 _
b0 B
b0 ^
1$
#561700000
0'
#562545000
0$
#565800000
b11 @
b1010 D
b1 A
b1 ]
b10 E
b1 [
b11000 L
b10100 Z
b10101 ?
b10101 Y
1'
#566712000
b10110 =
b11011 G
b101 F
b10111 >
b10111 X
b11010 V
b0 C
b0 _
b1 B
b1 ^
1$
#569900000
0'
#570879000
0$
#574000000
b10 @
b11 A
b11 ]
b11 E
b10 [
b11001 L
b10101 Z
b10111 ?
b10111 Y
1'
#575046000
b10010 =
b11100 G
b101 F
b10110 >
b10110 X
b11011 V
b1 C
b1 _
b11 B
b11 ^
1$
#578100000
0'
#579213000
0$
#582200000
b110 @
b1010 D
b10 A
b10 ]
b100 E
b11 [
b11010 L
b10111 Z
b10110 ?
b10110 Y
1'
#583380000
b10011 =
b11101 G
b101 F
b10010 >
b10010 X
b11100 V
b10 C
b11 _
b10 B
b10 ^
1$
#586300000
0'
#587547000
0$
#590400000
b111 @
b110 A
b110 ]
b101 E
b100 [
b11011 L
b10110 Z
b10010 ?
b10010 Y
1'
#591714000
b10001 =
b11110 G
b101 F
b10011 >
b10011 X
b11101 V
b11 C
b10 _
b110 B
b110 ^
1$
#594500000
0'
#595881000
0$
#598600000
b101 @
b1010 D
b111 A
b111 ]
b110 E
b101 [
b11100 L
b10010 Z
b10011 ?
b10011 Y
1'
#600048000
b10000 =
b11111 G
b101 F
b10001 >
b10001 X
b11110 V
b100 C
b110 _
b111 B
b111 ^
1$
#602700000
0'
#604215000
0$
#606800000
b100 @
b101 A
b101 ]
b111 E
b110 [
b11101 L
b10011 Z
b10001 ?
b10001 Y
1'
#608382000
b0 =
b0 G
b101 F
b10000 >
b10000 X
b11111 V
b101 C
b111 _
b101 B
b101 ^
1$
#610900000
0'
#612549000
0$
#615000000
b1100 @
b1010 D
b100 A
b100 ]
b1000 E
b111 [
b11110 L
b10001 Z
b10000 ?
b10000 Y
1'
#616716000
b1 =
b1 G
b101 F
b0 >
b0 X
b0 V
b110 C
b101 _
b100 B
b100 ^
1$
#619100000
0'
#620883000
0$
#623200000
b1101 @
b1100 A
b1100 ]
b1001 E
b1000 [
b11111 L
b10000 Z
b0 ?
b0 Y
1'
#625050000
b11 =
b10 G
b101 F
b1 >
b1 X
b1 V
b111 C
b100 _
b1100 B
b1100 ^
1$
#627300000
0'
#629217000
0$
#631400000
b1111 @
b1010 D
b1101 A
b1101 ]
b1010 E
b1001 [
b0 L
b0 Z
b1 ?
b1 Y
1'
#633384000
b10 =
b11 G
b101 F
b11 >
b11 X
b10 V
b1000 C
b1100 _
b1101 B
b1101 ^
1$
#635500000
0'
#637551000
0$
#639600000
b1110 @
b1111 A
b1111 ]
b1011 E
b1010 [
b1 L
b1 Z
b11 ?
b11 Y
1'
#641718000
b110 =
b100 G
b101 F
b10 >
b10 X
b11 V
b1001 C
b1101 _
b1111 B
b1111 ^
1$
#643700000
0'
#645885000
0$
#647800000
b1010 @
b1010 D
b1110 A
b1110 ]
b1100 E
b1011 [
b10 L
b11 Z
b10 ?
b10 Y
1'
#650052000
b111 =
b101 G
b101 F
b110 >
b110 X
b100 V
b1010 C
b1111 _
b1110 B
b1110 ^
1$
#651900000
0'
#654219000
0$
#656000000
b1011 @
b1010 A
b1010 ]
b1101 E
b1100 [
b11 L
b10 Z
b110 ?
b110 Y
1'
#658386000
b101 =
b110 G
b101 F
b111 >
b111 X
b101 V
b1011 C
b1110 _
b1010 B
b1010 ^
1$
#660100000
0'
#662553000
0$
#664200000
b1001 @
b1010 D
b1011 A
b1011 ]
b1110 E
b1101 [
b100 L
b110 Z
b111 ?
b111 Y
1'
#666720000
b100 =
b111 G
b101 F
b101 >
b101 X
b110 V
b1100 C
b1010 _
b1011 B
b1011 ^
1$
#668300000
0'
#670887000
0$
#672400000
b1000 @
b1001 A
b1001 ]
b1111 E
b1110 [
b101 L
b111 Z
b101 ?
b101 Y
1'
#675054000
0I
b1100 =
b1000 G
b101 F
b100 >
b100 X
b111 V
b1101 C
b1011 _
b1001 B
b1001 ^
1$
#676500000
0'
#679221000
0$
#680600000
b11000 @
b1010 D
b1000 A
b1000 ]
b10000 E
b1111 [
b110 L
b101 Z
b100 ?
b100 Y
1'
#683388000
b1101 =
b1001 G
b101 F
b1100 >
b1100 X
b1000 V
b1110 C
b1001 _
b1000 B
b1000 ^
1$
#684700000
0'
#687555000
0$
#688800000
b11001 @
b11000 A
b11000 ]
b10001 E
b10000 [
b111 L
b100 Z
b1100 ?
b1100 Y
1'
#691722000
b1111 =
b1010 G
b101 F
b1101 >
b1101 X
b1001 V
b1111 C
b1000 _
b11000 B
b11000 ^
1$
#692900000
0'
#695889000
0$
#697000000
b11011 @
b1010 D
b11001 A
b11001 ]
b10010 E
b10001 [
b1000 L
b1100 Z
b1101 ?
b1101 Y
1'
#700056000
b1110 =
b1011 G
b101 F
b1111 >
b1111 X
b1010 V
b10000 C
b11000 _
b11001 B
b11001 ^
1$
#701100000
0'
#704223000
0$
#705200000
b11010 @
b11011 A
b11011 ]
b10011 E
b10010 [
b1001 L
b1101 Z
b1111 ?
b1111 Y
1'
#708390000
b1010 =
b1100 G
b101 F
b1110 >
b1110 X
b1011 V
b10001 C
b11001 _
b11011 B
b11011 ^
1$
#709300000
0'
#712557000
0$
#713400000
b11110 @
b1010 D
b11010 A
b11010 ]
b10100 E
b10011 [
b1010 L
b1111 Z
b1110 ?
b1110 Y
1'
#716724000
b1011 =
b1101 G
b101 F
b1010 >
b1010 X
b1100 V
b10010 C
b11011 _
b11010 B
b11010 ^
1$
#717500000
0'
#720891000
0$
#721600000
b11111 @
b11110 A
b11110 ]
b10101 E
b10100 [
b1011 L
b1110 Z
b1010 ?
b1010 Y
1'
#725058000
b1001 =
b1110 G
b101 F
b1011 >
b1011 X
b1101 V
b10011 C
b11010 _
b11110 B
b11110 ^
1$
#725700000
0'
#729225000
0$
#729800000
b11101 @
b1010 D
b11111 A
b11111 ]
b10110 E
b10101 [
b1100 L
b1010 Z
b1011 ?
b1011 Y
1'
#733392000
b1000 =
b1111 G
b101 F
b1001 >
b1001 X
b1110 V
b10100 C
b11110 _
b11111 B
b11111 ^
1$
#733900000
0'
#737559000
0$
#738000000
b11100 @
b11101 A
b11101 ]
b10111 E
b10110 [
b1101 L
b1011 Z
b1001 ?
b1001 Y
1'
#741726000
b11000 =
b10000 G
b101 F
b1000 >
b1000 X
b1111 V
b10101 C
b11111 _
b11101 B
b11101 ^
1$
#742100000
0'
#745893000
0$
#746200000
b10100 @
b1010 D
b11100 A
b11100 ]
b11000 E
b10111 [
b1110 L
b1001 Z
b1000 ?
b1000 Y
1'
#750060000
b11001 =
b10001 G
b101 F
b11000 >
b11000 X
b10000 V
b10110 C
b11101 _
b11100 B
b11100 ^
1$
#750300000
0'
#754227000
0$
#754400000
b10101 @
b10100 A
b10100 ]
b11001 E
b11000 [
b1111 L
b1000 Z
b11000 ?
b11000 Y
1'
#758394000
b11011 =
b10010 G
b101 F
b11001 >
b11001 X
b10001 V
b10111 C
b11100 _
b10100 B
b10100 ^
1$
#758500000
0'
#762561000
0$
#762600000
b10111 @
b1010 D
b10101 A
b10101 ]
b11010 E
b11001 [
b10000 L
b11000 Z
b11001 ?
b11001 Y
1'
#766700000
0'
#766728000
b11010 =
b10011 G
b101 F
b11011 >
b11011 X
b10010 V
b11000 C
b10100 _
b10101 B
b10101 ^
1$
#770800000
b10110 @
b10111 A
b10111 ]
b11011 E
b11010 [
b10001 L
b11001 Z
b11011 ?
b11011 Y
1'
#770895000
0$
#774900000
0'
#775062000
b11110 =
b10100 G
b101 F
b11010 >
b11010 X
b10011 V
b11001 C
b10101 _
b10111 B
b10111 ^
1$
#779000000
b10010 @
b1010 D
b10110 A
b10110 ]
b11100 E
b11011 [
b10010 L
b11011 Z
b11010 ?
b11010 Y
1'
#779229000
0$
#783100000
0'
#783396000
b11111 =
b10101 G
b101 F
b11110 >
b11110 X
b10100 V
b11010 C
b10111 _
b10110 B
b10110 ^
1$
#787200000
b10011 @
b10010 A
b10010 ]
b11101 E
b11100 [
b10011 L
b11010 Z
b11110 ?
b11110 Y
1'
#787563000
0$
#791300000
0'
